%YAML 1.1
%TAG !u! tag:unity3d.com,2011:
--- !u!21 &2100000
Material:
  serializedVersion: 6
  m_ObjectHideFlags: 0
  m_CorrespondingSourceObject: {fileID: 0}
  m_PrefabInstance: {fileID: 0}
  m_PrefabAsset: {fileID: 0}
  m_Name: face 2
  m_Shader: {fileID: 4800000, guid: 1648ff212acba6e41be0f69902fe7cdf, type: 3}
  m_ShaderKeywords: 
  m_LightmapFlags: 5
  m_EnableInstancingVariants: 0
  m_DoubleSidedGI: 0
  m_CustomRenderQueue: -1
  stringTagMap: {}
  disabledShaderPasses: []
  m_SavedProperties:
    serializedVersion: 3
    m_TexEnvs:
    - _FalloffSampler:
        m_Texture: {fileID: 2800000, guid: a1d5b2277eb3f6245900378e6fa97575, type: 3}
        m_Scale: {x: 1, y: 1}
        m_Offset: {x: 0, y: 0}
    - _MainTex:
        m_Texture: {fileID: 2800000, guid: 41a34d04d9e14b8429ac86abc6fb1567, type: 3}
        m_Scale: {x: 1, y: 1}
        m_Offset: {x: 0, y: 0}
    - _RimLightSampler:
        m_Texture: {fileID: 2800000, guid: a18067604964b5a4d8fd5552ed0d789e, type: 3}
        m_Scale: {x: 1, y: 1}
        m_Offset: {x: 0, y: 0}
    m_Floats:
    - _DepthBias: 0.00012
    - _EdgeThickness: 2
    - _FalloffPower: 1
    m_Colors:
    - _Color: {r: 1, g: 1, b: 1, a: 1}
    - _ShadowColor: {r: 0.8, g: 0.8, b: 1, a: 1}
