%YAML 1.1
%TAG !u! tag:unity3d.com,2011:
--- !u!162 &1
EditorUserSettings:
  m_ObjectHideFlags: 0
  serializedVersion: 4
  m_ConfigSettings:
    RecentlyUsedScenePath-0:
      value: 22424703114646680e0b0227036c4c150012163e2417203c22260f7cf1e5223decf33ed6e13630332b4cfa320d2a18
      flags: 0
    RecentlyUsedScenePath-1:
      value: 22424703114646680e0b0227036c481f041c273823272b7f3a260f38ddf23b37efd863a7f234362820
      flags: 0
    RecentlyUsedScenePath-2:
      value: 22424703114646680e0b0227036c711501572b292926237e38271427fb
      flags: 0
    RecentlyUsedScenePath-3:
      value: 22424703114646680e0b0227036c6c150012163e2417203c22260f7cf1e5223decf33ed6e13630332b4cfa320d2a18
      flags: 0
    RecentlyUsedScenePath-4:
      value: 22424703114646680e0b0227036c4c190e0310152a24293f3f660e3afaf43c07e4eb39e6f5742a323016f6
      flags: 0
    RecentlyUsedScenePath-5:
      value: 22424703114646680e0b0227036c5919100310152a24293f3f661b3ae4f43c07e4eb39e6f5742a323016f6
      flags: 0
    RecentlyUsedScenePath-6:
      value: 22424703114646680e0b0227036c791f030310152a24293f3f661b3cf7f43c07e4eb39e6f5742a323016f6
      flags: 0
    RecentlyUsedScenePath-7:
      value: 22424703114646680e0b0227036c6b181f051c152a24293f3f66293bebf23007e4eb39e6f5742a323016f6
      flags: 0
    RecentlyUsedScenePath-8:
      value: 22424703114646680e0b0227036c4c151518162e132e2a3f223b5220e7e33b36e6d830e5e8352d722c0ce6281d
      flags: 0
    RecentlyUsedScenePath-9:
      value: 22424703114646680e0b0227036c58021902162e132e2f223e3d2235eeef3b2aade024e6f2343b033f0bfd2f10010733fd051b45e305031f08
      flags: 0
    vcSharedLogLevel:
      value: 0d5e400f0650
      flags: 0
  m_VCAutomaticAdd: 1
  m_VCDebugCom: 0
  m_VCDebugCmd: 0
  m_VCDebugOut: 0
  m_SemanticMergeMode: 2
  m_VCShowFailedCheckout: 1
  m_VCOverwriteFailedCheckoutAssets: 1
  m_VCProjectOverlayIcons: 1
  m_VCHierarchyOverlayIcons: 1
  m_VCOtherOverlayIcons: 1
  m_VCAllowAsyncUpdate: 0
